Chapter 4 Alignment. Ruwe gegevens inspecteren | Portfolio
…
Eerst moeten we naar alle voorspellingen kijken, ook naar de voorspellingen met ongunstige eval-waarden (vergelijkbaar met p-waarden). Alle voorspellingen: .

all_predictions <- read_excel("lumbricus/identification/prediction.xlsx", sheet = 1 )

all_predictions 

## # A tibble: 89 × 5
##    `OX457036.1:2000789-2003917` AUGUSTUS gene  predicted:not satisfac…¹ `185403`
##    <chr>                        <chr>    <chr> <chr>                    <chr>   
##  1 OX457036.1:2007959-2008723   AUGUSTUS gene  predicted:not satisfact… 1852    
##  2 OX457036.1:2039309-2039692   AUGUSTUS gene  predicted:not satisfact… 881419  
##  3 OX457036.1:2062296-2062562   AUGUSTUS gene  predicted:not satisfact… 0       
##  4 OX457036.1:2087020-2087265   AUGUSTUS gene  predicted: Lumbricus ru… 7.38114…
##  5 OX457036.1:2089471-2089899   AUGUSTUS gene  predicted:Lampetra plan… 8.69409…
##  6 OX457036.1:2090721-2091137   AUGUSTUS gene  predicted:not satisfact… 965729  
##  7 OX457036.1:2106048-210639    AUGUSTUS gene  predicted:Mus musculus … 6.12276…
##  8 OX457036.1:2106538-2106948   AUGUSTUS gene  predicted:not satisfact… 640374  
##  9 OX457036.1:2107471-2108487   AUGUSTUS gene  predicted:not satisfact… 3.24628…
## 10 OX457036.1:2108840-2109808   AUGUSTUS gene  predicted: Candidozyma … 1.27857…
## # ℹ 79 more rows
## # ℹ abbreviated name: ¹​`predicted:not satisfactory p-value`
…
